#Fecha , Día , Cantidad de goles , equipos
1, 13/08/18 ,2, Atlético Tucumán 2-2 Racing
2, 19/08/18 ,2, Racing 2-0 Vélez
3, 24/08/18 ,3, Patronato 0-3 Racing
4, 02/09/18 ,2, Racing 2-0 Rosario Central
5, 16/09/18 ,1, Lanús 0-1 Racing
6, 24/09/18 ,1, Racing 1-0 Unión
7, 29/09/18 ,2, Argentinos 0-2 Racing
8, 07/10/18 ,2, Racing 2-2 Boca
9, 21/10/18 ,1, San Martín (T) 2-1 Racing
10, 28/10/18 ,2, Racing 2-1 San Lorenzo
11, 04/11/18 ,1, Racing 1-0 Newell's
12, 11/11/18 ,3, Gimnasia 0-3 Racing
13, 25/11/18 ,0, Racing 0-0 Banfield
14, 03/12/18 ,3, Talleres 1-3 Racing
15, 09/12/18 ,1, Racing 1-0 San Martín (SJ)
16, 26/01/19 ,3, Aldosivi 1-3 Racing
17, 03/02/19 ,3, Racing 3-1 Huracán
18, 10/02/19 ,0, River 2-0 Racing
19, 18/02/19 ,3, Racing 3-0 Godoy Cruz
20, 23/02/19 ,3, Independiente 1-3 Racing
21, 03/03/19 ,1, Racing 1-0 Estudiantes
22, 09/03/19 ,1, Colón 1-1 Racing
23, 16/03/19 ,1, Racing 1-0 Belgrano
24, 31/03/19 ,1, Tigre 1-1 Racing
25, 07/04/19 ,1, Racing 1-1 Defensa y Justicia
